<svg width="100" height="100" viewBox="0 0 100 100" fill="none" xmlns="http://www.w3.org/2000/svg">
<g opacity="0.2">
<mask id="mask0" mask-type="alpha" maskUnits="userSpaceOnUse" x="0" y="0" width="100" height="100">
<path fill-rule="evenodd" clip-rule="evenodd" d="M50 100C22.3812 100 0 77.6125 0 50C0 22.3812 22.3812 0 50 0C77.6125 0 100 22.3812 100 50C100 77.6125 77.6125 100 50 100ZM50 6.25C25.8375 6.25 6.25 25.8375 6.25 50C6.25 74.1562 25.8375 93.75 50 93.75C74.1562 93.75 93.75 74.1625 93.75 50C93.75 25.8375 74.1562 6.25 50 6.25ZM51.025 72.3186C61.65 71.6124 65.625 65.5124 65.625 59.6812C65.625 51.1874 58.0875 48.7249 51.025 46.8499V32.7187C54.8625 33.2374 58.4313 34.8561 61.1688 37.7124L64.6 33.7561C61.2375 30.4499 56.7125 28.2437 51.025 27.7936V21.8312H46.85V27.7249C38.6188 28.3124 32.6563 33.0437 32.6563 39.7187C32.6563 47.6874 39.8563 49.8874 46.85 51.7062V67.4624C41.4313 66.8749 37.25 64.2812 34.65 61.3624L31.225 65.5124C34.65 69.2061 39.9313 71.9249 46.85 72.3186V78.0874H51.025V72.3186ZM51.025 67.5313C57.5375 66.8813 59.7313 63.1875 59.7313 60.075C59.7313 55.8563 55.825 54.1125 51.025 52.75V67.5313ZM38.5563 39.3876C38.5563 35.6313 41.9813 32.9063 46.85 32.5813V45.8001C42.1875 44.5063 38.5563 42.9501 38.5563 39.3876Z" fill="white"/>
</mask>
<g mask="url(#mask0)">
<rect width="100" height="100" fill="white"/>
<path fill-rule="evenodd" clip-rule="evenodd" d="M0 0H100V100H0V0Z" fill="white"/>
</g>
</g>
</svg>
