<svg width="100" height="100" viewBox="0 0 100 100" fill="none" xmlns="http://www.w3.org/2000/svg">
<g opacity="0.2">
<mask id="mask0" mask-type="alpha" maskUnits="userSpaceOnUse" x="0" y="0" width="100" height="101">
<path fill-rule="evenodd" clip-rule="evenodd" d="M34.375 34.375L50 0L65.625 34.3812L100 37.5125L74.025 63.6563L81.0063 100.006L49.8875 81.025L18.75 100.006L25.9375 63.675L0 37.5062L34.375 34.375ZM59.9375 36.9625L50 15.1062L40.0688 36.9687L38.5625 40.2812L34.9438 40.6062L13.7875 42.5312L30.3813 59.2812L32.7188 61.6437L32.075 64.9L27.6438 87.275L46.6375 75.6937L49.8938 73.7125L53.15 75.6937L72.2063 87.3187L67.8875 64.8312L67.2625 61.5875L69.5875 59.2437L86.2 42.525L65.0563 40.6L61.4375 40.275L59.9375 36.9625Z" fill="white"/>
</mask>
<g mask="url(#mask0)">
<rect width="100" height="100" fill="white"/>
<path fill-rule="evenodd" clip-rule="evenodd" d="M0 0H100V100H0V0Z" fill="white"/>
</g>
</g>
</svg>
