<svg width="100" height="100" viewBox="0 0 100 100" fill="none" xmlns="http://www.w3.org/2000/svg">
<g opacity="0.2">
<mask id="mask0" mask-type="alpha" maskUnits="userSpaceOnUse" x="6" y="0" width="94" height="101">
<path fill-rule="evenodd" clip-rule="evenodd" d="M87.5 50C90.95 50 93.75 47.2062 93.75 43.75L100 18.75C100 15.3 97.2 12.5 93.75 12.5H81.25V0H25V12.5H12.5C9.04375 12.5 6.25 15.3 6.25 18.75L12.5 43.75C12.5 47.2062 15.2937 50 18.75 50H26.7188C30.2563 59.95 39.1688 67.225 50 68.4437V93.75H37.5V100.006H68.75V93.75H56.25V68.4437C67.0875 67.225 76 59.95 79.5312 50H87.5ZM25 25H25.3063C25.2844 25.1647 25.2618 25.329 25.2392 25.4933L25.2392 25.4933C25.1194 26.364 25 27.2321 25 28.1313V40.6312C25 41.3746 25.0968 42.0907 25.1935 42.807L25.1935 42.807L25.1935 42.8071L25.1935 42.8072C25.2359 43.1207 25.2783 43.4342 25.3125 43.75H21.875C20.15 43.75 18.75 42.3563 18.75 40.625L12.5 21.875C12.5 20.1562 13.9 18.75 15.625 18.75H25V25ZM75 28.1313V6.25H31.25V31.25V40.6312C31.25 52.7125 41.0438 62.5063 53.125 62.5063C65.2062 62.5063 75 52.7125 75 40.6312V28.1313ZM81.2501 18.75H90.6251C92.3501 18.75 93.7501 20.1562 93.7501 21.875L87.5001 40.625C87.5001 42.3563 86.1001 43.75 84.3751 43.75H80.9376C80.9718 43.4341 81.0142 43.1206 81.0565 42.807C81.1533 42.0908 81.2501 41.3746 81.2501 40.6312V28.1313C81.2501 27.2771 81.1383 26.4508 81.0264 25.6238C80.9983 25.4161 80.9702 25.2083 80.9438 25H81.2501V18.75Z" fill="white"/>
</mask>
<g mask="url(#mask0)">
<rect width="100" height="100" fill="white"/>
<path fill-rule="evenodd" clip-rule="evenodd" d="M0 0H100V100H0V0Z" fill="white"/>
</g>
</g>
</svg>
