<svg width="29" height="23" viewBox="0 0 29 23" fill="none" xmlns="http://www.w3.org/2000/svg">
<path d="M25.956 0.275999H2.628C1.884 0.299998 1.26 0.563998 0.756 1.068C0.276 1.548 0.024 2.172 0 2.94V19.86C0.024 20.628 0.276 21.264 0.756 21.768C1.26 22.248 1.884 22.5 2.628 22.524H25.956C26.7 22.5 27.312 22.248 27.792 21.768C28.296 21.264 28.56 20.628 28.584 19.86V2.94C28.56 2.172 28.296 1.548 27.792 1.068C27.312 0.563998 26.7 0.299998 25.956 0.275999ZM27.54 19.86C27.54 20.316 27.384 20.7 27.072 21.012C26.784 21.3 26.412 21.444 25.956 21.444H2.628C2.196 21.444 1.824 21.3 1.512 21.012C1.224 20.7 1.068 20.316 1.044 19.86V2.94C1.068 2.484 1.224 2.1 1.512 1.788C1.824 1.476 2.196 1.32 2.628 1.32H25.956C26.412 1.32 26.784 1.476 27.072 1.788C27.384 2.1 27.54 2.484 27.54 2.94V19.86ZM25.596 2.508L15.552 11.184C15.192 11.496 14.772 11.652 14.292 11.652C13.812 11.652 13.392 11.496 13.032 11.184L2.988 2.508C2.868 2.412 2.736 2.376 2.592 2.4C2.472 2.4 2.352 2.46 2.232 2.58C2.136 2.7 2.088 2.832 2.088 2.976C2.112 3.096 2.184 3.216 2.304 3.336L12.348 12.012C12.9 12.468 13.548 12.696 14.292 12.696C15.036 12.696 15.684 12.468 16.236 12.012L26.28 3.336C26.4 3.216 26.46 3.096 26.46 2.976C26.484 2.832 26.436 2.7 26.316 2.58C26.22 2.46 26.1 2.4 25.956 2.4C25.836 2.376 25.716 2.412 25.596 2.508Z" fill="white"/>
</svg>
