<svg width="196" height="87" viewBox="0 0 196 87" fill="none" xmlns="http://www.w3.org/2000/svg">
<circle cx="100.283" cy="43.5" r="43.5" fill="#3E95FB"/>
<path d="M80.5224 44.2612C80.5224 37.0012 83.2124 33.3712 88.5924 33.3712C93.9924 33.3712 96.6924 37.0012 96.6924 44.2612C96.6924 51.5012 93.9924 55.1212 88.5924 55.1212C83.2124 55.1212 80.5224 51.5012 80.5224 44.2612ZM90.3924 37.6612C89.8924 37.4012 89.3024 37.2712 88.6224 37.2712C87.9424 37.2712 87.3524 37.4012 86.8524 37.6612C86.3524 37.9212 85.9624 38.2512 85.6824 38.6512C85.4224 39.0512 85.2124 39.5812 85.0524 40.2412C84.8924 40.8812 84.7824 41.5012 84.7224 42.1012C84.6824 42.7012 84.6624 43.4112 84.6624 44.2312C84.6624 45.0512 84.6824 45.7612 84.7224 46.3612C84.7824 46.9612 84.8924 47.5912 85.0524 48.2512C85.2124 48.8912 85.4224 49.4212 85.6824 49.8412C85.9624 50.2412 86.3524 50.5712 86.8524 50.8312C87.3524 51.0912 87.9424 51.2212 88.6224 51.2212C89.3024 51.2212 89.8924 51.0912 90.3924 50.8312C90.8924 50.5712 91.2724 50.2412 91.5324 49.8412C91.8124 49.4212 92.0324 48.8912 92.1924 48.2512C92.3524 47.5912 92.4524 46.9612 92.4924 46.3612C92.5524 45.7612 92.5824 45.0512 92.5824 44.2312C92.5824 43.4112 92.5524 42.7012 92.4924 42.1012C92.4524 41.5012 92.3524 40.8812 92.1924 40.2412C92.0324 39.5812 91.8124 39.0512 91.5324 38.6512C91.2724 38.2512 90.8924 37.9212 90.3924 37.6612ZM101.057 33.2512H114.467V36.9412H104.897V41.9212C105.317 41.4612 105.897 41.0812 106.637 40.7812C107.377 40.4612 108.277 40.3012 109.337 40.3012C110.397 40.3012 111.397 40.5212 112.337 40.9612C113.297 41.4012 114.027 41.9912 114.527 42.7312C115.527 44.1712 116.027 45.7712 116.027 47.5312C116.027 49.8512 115.357 51.7112 114.017 53.1112C112.697 54.4912 110.857 55.1812 108.497 55.1812C106.137 55.1812 104.277 54.6312 102.917 53.5312C101.577 52.4112 100.787 50.9512 100.547 49.1512H104.687C104.867 49.9312 105.277 50.5512 105.917 51.0112C106.577 51.4712 107.447 51.7012 108.527 51.7012C109.627 51.7012 110.477 51.3312 111.077 50.5912C111.677 49.8512 111.977 48.8712 111.977 47.6512C111.977 46.4312 111.667 45.4912 111.047 44.8312C110.447 44.1712 109.637 43.8412 108.617 43.8412C106.697 43.8412 105.517 44.6112 105.077 46.1512H101.057V33.2512Z" fill="white"/>
</svg>
